C:\Users\Ross\Documents\GroupProjectWorkspace\arsenalroster-app\src\test\java\com\arsenalroster\arsenalroster_app\test\JaxRsActivatorTest.java
C:\Users\Ross\Documents\GroupProjectWorkspace\arsenalroster-app\src\test\java\com\arsenalroster\arsenalroster_app\test\PlayerWSTest.java
C:\Users\Ross\Documents\GroupProjectWorkspace\arsenalroster-app\src\test\java\com\arsenalroster\arsenalroster_app\test\UtilsDAO.java
